<svg width="22" height="22" viewBox="0 0 22 22" fill="none" xmlns="http://www.w3.org/2000/svg">
<path d="M21.2575 6.74498C21.2071 5.64578 21.0319 4.89698 20.7775 4.23938C20.5135 3.56018 20.1607 2.98418 19.5871 2.41058C19.0135 1.83698 18.4375 1.48418 17.7583 1.22018C17.1007 0.965776 16.3519 0.790576 15.2527 0.740176C14.1535 0.692176 13.8031 0.680176 10.9999 0.680176C8.19673 0.680176 7.84633 0.692176 6.74473 0.742576C5.64553 0.792976 4.89673 0.968176 4.23913 1.22258C3.55993 1.48658 2.98393 1.83938 2.41033 2.41298C1.83673 2.98658 1.48393 3.56258 1.21993 4.24178C0.965532 4.89938 0.790332 5.64818 0.739932 6.74738C0.691932 7.84658 0.679932 8.19698 0.679932 11.0002C0.679932 13.8034 0.691932 14.1538 0.742332 15.2554C0.792732 16.3546 0.967932 17.1034 1.22233 17.761C1.48633 18.4402 1.83913 19.0162 2.41273 19.5898C2.98633 20.1634 3.56233 20.5162 4.24153 20.7802C4.89913 21.0346 5.64793 21.2098 6.74713 21.2602C7.84633 21.3082 8.19673 21.3202 10.9999 21.3202C13.8031 21.3202 14.1535 21.3082 15.2551 21.2578C16.3543 21.2074 17.1031 21.0322 17.7607 20.7778C18.4399 20.5138 19.0159 20.161 19.5895 19.5874C20.1631 19.0138 20.5159 18.4378 20.7799 17.7586C21.0343 17.101 21.2095 16.3522 21.2599 15.253C21.3079 14.1538 21.3199 13.8034 21.3199 11.0002C21.3199 8.19698 21.3079 7.84658 21.2575 6.74498ZM19.3999 15.1714C19.3543 16.177 19.1863 16.7242 19.0447 17.0866C18.8575 17.569 18.6343 17.9122 18.2719 18.2722C17.9119 18.6322 17.5663 18.8578 17.0863 19.045C16.7215 19.1866 16.1767 19.3546 15.1711 19.4002C14.0839 19.4506 13.7575 19.4602 10.9999 19.4602C8.24233 19.4602 7.91833 19.4506 6.82873 19.4002C5.82313 19.3546 5.27593 19.1866 4.91353 19.045C4.43113 18.8578 4.08793 18.6346 3.72793 18.2722C3.36793 17.9122 3.14233 17.5666 2.95513 17.0866C2.81353 16.7218 2.64553 16.177 2.59993 15.1714C2.54953 14.0842 2.53993 13.7578 2.53993 11.0002C2.53993 8.24258 2.54953 7.91858 2.59993 6.82898C2.64553 5.82338 2.81353 5.27618 2.95513 4.91378C3.14233 4.43138 3.36553 4.08818 3.72793 3.72818C4.08793 3.36818 4.43353 3.14258 4.91353 2.95538C5.27833 2.81378 5.82313 2.64578 6.82873 2.60018C7.91593 2.54978 8.24233 2.54018 10.9999 2.54018C13.7575 2.54018 14.0815 2.54978 15.1711 2.60018C16.1767 2.64578 16.7239 2.81378 17.0863 2.95538C17.5687 3.14258 17.9119 3.36578 18.2719 3.72818C18.6319 4.08818 18.8575 4.43378 19.0447 4.91378C19.1863 5.27858 19.3543 5.82338 19.3999 6.82898C19.4503 7.91618 19.4599 8.24258 19.4599 11.0002C19.4599 13.7578 19.4503 14.0818 19.3999 15.1714Z" fill="#4D4A54"/>
<path d="M10.9999 5.70117C8.07188 5.70117 5.70068 8.07477 5.70068 11.0004C5.70068 13.9284 8.07428 16.2996 10.9999 16.2996C13.9255 16.2996 16.2991 13.9284 16.2991 11.0004C16.2991 8.07237 13.9279 5.70117 10.9999 5.70117ZM10.9999 14.4396C9.09908 14.4396 7.56068 12.8988 7.56068 11.0004C7.56068 9.10197 9.09908 7.56117 10.9999 7.56117C12.9007 7.56117 14.4391 9.09957 14.4391 11.0004C14.4391 12.9012 12.9007 14.4396 10.9999 14.4396Z" fill="#4D4A54"/>
<path d="M16.7922 6.69664C17.4578 6.53947 17.87 5.87246 17.7128 5.20684C17.5557 4.54122 16.8887 4.12905 16.223 4.28622C15.5574 4.44339 15.1452 5.11039 15.3024 5.77601C15.4596 6.44163 16.1266 6.85381 16.7922 6.69664Z" fill="#4D4A54"/>
</svg>
