<svg width="155" height="36" viewBox="0 0 155 36" fill="none" xmlns="http://www.w3.org/2000/svg">
<path d="M153.873 0.873047C155.561 6.18818 155.127 11.144 151.588 15.4897C148.842 18.8591 143.968 19.1913 140.571 16.4659C140.056 16.0524 139.846 16.1269 139.541 16.6286C139.026 17.4828 138.415 18.276 138.51 19.3811C138.558 19.9167 138.192 20.2421 137.643 20.2285C137.073 20.215 136.836 19.8421 136.836 19.3133C136.836 18.7371 137.1 18.1405 136.653 17.5913C136.47 17.3676 136.361 17.1981 136.009 17.354C133.439 18.4998 130.592 16.7574 130.646 13.1236C130.666 11.7881 131.08 10.5745 132.158 9.59827C132.307 9.85589 132.449 10.0864 132.565 10.3237C133.026 11.2254 133.717 11.7948 134.734 11.9779C135.29 12.0796 135.832 12.2491 136.341 12.527C137.71 13.2795 138.137 14.5541 137.453 15.9642C137.317 16.2422 137.107 16.5337 137.473 16.7168C137.792 16.8795 137.792 16.4524 137.954 16.3168C138.978 15.4625 139.202 14.4931 138.565 13.2592C138.246 12.6423 138.307 11.883 138.314 11.1779C138.327 9.31354 139.188 7.99152 140.863 7.17798C142.226 6.51359 143.683 6.14072 145.161 6.10004C148.788 6.00513 151.452 4.37805 153.364 1.37472C153.452 1.23913 153.561 1.1171 153.663 0.995073C153.676 0.961175 153.71 0.954401 153.873 0.873047Z" fill="#979797"/>
<path d="M5.61031 20.229V19.3475C5.98426 19.2852 6.27808 19.2051 6.49177 19.1071C6.71436 19.0003 6.87907 18.8534 6.98592 18.6664C7.09276 18.4794 7.15954 18.2435 7.18625 17.9586C7.21296 17.6647 7.22632 17.3042 7.22632 16.8768V3.5614H6.14452C5.61031 3.5614 5.20074 3.62373 4.91582 3.74838C4.63091 3.87303 4.38161 4.06891 4.16792 4.33602C3.96314 4.60313 3.78506 4.96373 3.6337 5.41781C3.48234 5.86299 3.35769 6.28592 3.25975 6.68658H1.43005V1.99882H17.1494V6.68658H15.3197C15.1505 6.08113 15.017 5.63595 14.919 5.35103C14.8211 5.06612 14.7098 4.82572 14.5852 4.62984C14.4694 4.42506 14.3448 4.25589 14.2112 4.12233C14.0777 3.98878 13.9352 3.88194 13.7838 3.8018C13.6325 3.72167 13.441 3.6638 13.2096 3.62818C12.987 3.58366 12.6931 3.5614 12.3281 3.5614H11.3665V16.8768C11.3665 17.3487 11.3799 17.7093 11.4066 17.9586C11.4333 18.199 11.4822 18.3948 11.5535 18.5462C11.6247 18.6976 11.7093 18.8222 11.8072 18.9202C11.9141 19.0092 12.0565 19.0938 12.2346 19.1739C12.4216 19.2451 12.6709 19.303 12.9825 19.3475V20.229H5.61031Z" fill="#979797"/>
<path d="M25.777 14.5796H20.0742L19.6335 15.8484C19.5089 16.2046 19.4065 16.5518 19.3263 16.8901C19.2462 17.2196 19.2061 17.5713 19.2061 17.9452C19.2061 18.8178 19.6691 19.2852 20.5951 19.3475V20.229H14.8923V19.3475C15.2218 19.3119 15.5111 19.1962 15.7604 19.0003C16.0097 18.8044 16.2368 18.5373 16.4416 18.199C16.6464 17.8606 16.8645 17.3754 17.096 16.7432L22.6652 1.90533H26.2311L30.6384 16.8634C30.8343 17.5312 30.999 18.0075 31.1326 18.2925C31.2661 18.5685 31.4397 18.7955 31.6534 18.9736C31.8671 19.1428 32.1654 19.2674 32.5482 19.3475V20.229H25.176V19.3475C25.639 19.2941 25.9818 19.165 26.2044 18.9602C26.427 18.7554 26.5383 18.4661 26.5383 18.0921C26.5383 17.8161 26.5071 17.5089 26.4448 17.1706C26.3825 16.8323 26.2801 16.4049 26.1376 15.8885L25.777 14.5796ZM20.5818 13.0171H25.3897L23.2528 5.49794L20.5818 13.0171Z" fill="#979797"/>
<path d="M45.2225 20.229V19.5612C45.0979 19.2763 44.7729 18.3993 44.2476 16.9302C43.6332 15.194 43.1792 14.0143 42.8853 13.391C42.5915 12.7589 42.2309 12.3003 41.8036 12.0154C41.3762 11.7216 40.7618 11.5747 39.9605 11.5747H39.6934V16.8768C39.6934 17.7582 39.7735 18.3548 39.9338 18.6664C40.103 18.9691 40.5036 19.1962 41.1358 19.3475V20.229H34.1242V19.3475C34.7385 19.1962 35.1303 18.9736 35.2994 18.6798C35.4686 18.377 35.5532 17.776 35.5532 16.8768V5.36439C35.5532 4.44732 35.4731 3.84632 35.3128 3.5614C35.1525 3.27649 34.7563 3.04945 34.1242 2.88028V1.99882H41.1358V2.88028C40.5125 3.04945 40.1163 3.28094 39.9471 3.57476C39.778 3.86858 39.6934 4.46512 39.6934 5.36439V10.1189H39.9739C41.0512 10.1189 41.8703 9.8073 42.4313 9.18405C43.0011 8.55189 43.4774 7.66598 43.8603 6.52631C44.3233 5.12844 44.7462 4.14014 45.1291 3.5614C45.5208 2.98267 46.0105 2.54194 46.5982 2.23922C47.1858 1.93649 47.9515 1.78513 48.8953 1.78513C49.6254 1.78513 50.2664 1.88752 50.8185 2.09231V5.3911H48.9354C48.8374 4.58087 48.4813 4.17576 47.8669 4.17576C47.4039 4.17576 47.0077 4.42061 46.6783 4.9103C46.3578 5.4 46.0194 6.09894 45.6633 7.00711C45.0934 8.51182 44.301 9.54464 43.286 10.1056V10.2391C44.212 10.346 44.951 10.5864 45.503 10.9603C46.0639 11.3254 46.4913 11.7616 46.7851 12.2692C47.0879 12.7767 47.5508 13.7783 48.1741 15.2741C48.9131 17.0638 49.4206 18.1678 49.6966 18.5863C49.9815 19.0047 50.4401 19.2585 51.0722 19.3475V20.229H45.2225Z" fill="#979797"/>
<path d="M56.2408 16.1957V20.229H52.6482V16.1957H56.2408Z" fill="#979797"/>
<path d="M68.9552 16.81L69.9835 18.0521C69.111 18.9068 68.2651 19.5212 67.446 19.8951C66.6358 20.2602 65.7499 20.4427 64.7883 20.4427C62.8562 20.4427 61.3826 19.8773 60.3676 18.7465C59.3526 17.6069 58.8451 15.9553 58.8451 13.7917C58.8451 12.3315 59.1211 11.0716 59.6731 10.0121C60.2341 8.94365 61.0354 8.13787 62.0771 7.59475C63.1188 7.04272 64.3119 6.76671 65.6564 6.76671C66.3776 6.76671 67.0943 6.82013 67.8066 6.92698C68.5278 7.02492 69.1822 7.16292 69.7699 7.34099V10.5597H67.1255C66.9919 9.72272 66.7916 9.11282 66.5245 8.72996C66.2574 8.3471 65.8745 8.15568 65.3759 8.15568C65.0465 8.15568 64.7304 8.24026 64.4277 8.40943C64.1339 8.5697 63.8712 8.85461 63.6397 9.26418C63.4171 9.66484 63.239 10.208 63.1055 10.8935C62.9719 11.5702 62.9052 12.4294 62.9052 13.4711C62.9052 14.5129 63.0031 15.3943 63.199 16.1155C63.3948 16.8278 63.7109 17.3798 64.1472 17.7716C64.5835 18.1544 65.1578 18.3459 65.8701 18.3459C66.3865 18.3459 66.8717 18.2346 67.3258 18.012C67.7888 17.7894 68.3319 17.3887 68.9552 16.81Z" fill="#979797"/>
<path d="M76.5945 16.3693C76.5945 17.2151 76.6212 17.7983 76.6746 18.1188C76.728 18.4394 76.8349 18.6976 76.9951 18.8934C77.1643 19.0804 77.4759 19.2318 77.93 19.3475V20.229H71.3859V19.3475C71.653 19.2852 71.8622 19.214 72.0136 19.1339C72.1649 19.0448 72.2807 18.9469 72.3608 18.84C72.4498 18.7243 72.5255 18.5818 72.5878 18.4127C72.6502 18.2346 72.6902 17.9942 72.708 17.6915C72.7259 17.3798 72.7348 16.9391 72.7348 16.3693V5.95203C72.7348 5.18632 72.7259 4.62539 72.708 4.26924C72.6991 3.90419 72.6724 3.60147 72.6279 3.36107C72.5923 3.11177 72.5255 2.91589 72.4276 2.77343C72.3385 2.62207 72.2094 2.50187 72.0403 2.41284C71.8711 2.3238 71.5995 2.24367 71.2256 2.17244V1.29098L74.925 1.104H76.5945V16.3693Z" fill="#979797"/>
<path d="M85.1019 1.65158V4.92366H81.4425V1.65158H85.1019ZM80.0268 19.3475C80.4631 19.2318 80.7614 19.0804 80.9216 18.8934C81.0908 18.7065 81.2021 18.4527 81.2555 18.1322C81.3178 17.8117 81.349 17.2285 81.349 16.3826V10.1723C81.349 9.73607 81.3268 9.38438 81.2822 9.11727C81.2466 8.85016 81.1709 8.63647 81.0552 8.47621C80.9483 8.31594 80.797 8.19574 80.6011 8.11561C80.4141 8.02657 80.1693 7.95089 79.8666 7.88857V6.9804L83.5393 6.87355H85.2087V16.3693C85.2087 16.8679 85.2132 17.2552 85.2221 17.5312C85.2399 17.7983 85.2622 18.0075 85.2889 18.1589C85.3156 18.3014 85.3512 18.4305 85.3957 18.5462C85.4491 18.662 85.5159 18.7688 85.596 18.8667C85.6762 18.9647 85.7919 19.0537 85.9433 19.1339C86.0947 19.214 86.295 19.2852 86.5443 19.3475V20.229H80.0268V19.3475Z" fill="#979797"/>
<path d="M103.158 20.229H96.6811V19.3475C97.0906 19.2496 97.3755 19.1071 97.5358 18.9202C97.6961 18.7243 97.8029 18.4661 97.8563 18.1455C97.9187 17.8161 97.9498 17.2285 97.9498 16.3826V12.8167C97.9498 12.1846 97.9365 11.6682 97.9098 11.2675C97.883 10.8579 97.8385 10.524 97.7762 10.2658C97.7228 10.0076 97.6427 9.79394 97.5358 9.62478C97.4379 9.4467 97.3266 9.30424 97.2019 9.1974C97.0773 9.08165 96.9348 8.99707 96.7745 8.94365C96.6143 8.89023 96.4095 8.86351 96.1602 8.86351C95.8219 8.86351 95.4702 8.97036 95.1051 9.18405C94.7401 9.38883 94.4329 9.6782 94.1836 10.0521C93.9343 10.4172 93.8096 10.809 93.8096 11.2274V16.3693C93.8096 17.2151 93.8363 17.8028 93.8898 18.1322C93.9432 18.4616 94.05 18.7243 94.2103 18.9202C94.3795 19.1071 94.6733 19.2496 95.0918 19.3475V20.229H88.6411V19.3475C89.0685 19.2318 89.3623 19.0804 89.5225 18.8934C89.6917 18.7065 89.803 18.4527 89.8564 18.1322C89.9188 17.8117 89.9499 17.2285 89.9499 16.3826V10.8935C89.9499 10.2347 89.9366 9.74943 89.9099 9.4378C89.892 9.11727 89.8386 8.86351 89.7496 8.67654C89.6695 8.48066 89.5403 8.32485 89.3623 8.2091C89.1931 8.08445 88.8948 7.9776 88.4675 7.88857V6.9804L92.1269 6.87355H93.8096L93.6093 8.79674L93.7696 8.8368C94.3216 8.3471 94.8068 7.96425 95.2253 7.68824C95.6438 7.40332 96.0801 7.18073 96.5342 7.02046C96.9971 6.8513 97.4824 6.76671 97.9899 6.76671C98.72 6.76671 99.3254 6.87355 99.8062 7.08724C100.287 7.29203 100.674 7.59475 100.968 7.99541C101.271 8.39607 101.485 8.88577 101.609 9.46451C101.743 10.0432 101.81 10.7155 101.81 11.4812V16.3693C101.81 16.761 101.814 17.1305 101.823 17.4778C101.841 17.8161 101.876 18.0877 101.93 18.2925C101.983 18.4972 102.054 18.6664 102.143 18.8C102.241 18.9246 102.375 19.0315 102.544 19.1205C102.713 19.2095 102.918 19.2852 103.158 19.3475V20.229Z" fill="#979797"/>
<path d="M110.21 1.65158V4.92366H106.551V1.65158H110.21ZM105.135 19.3475C105.571 19.2318 105.87 19.0804 106.03 18.8934C106.199 18.7065 106.31 18.4527 106.364 18.1322C106.426 17.8117 106.457 17.2285 106.457 16.3826V10.1723C106.457 9.73607 106.435 9.38438 106.39 9.11727C106.355 8.85016 106.279 8.63647 106.163 8.47621C106.057 8.31594 105.905 8.19574 105.709 8.11561C105.522 8.02657 105.278 7.95089 104.975 7.88857V6.9804L108.648 6.87355H110.317V16.3693C110.317 16.8679 110.321 17.2552 110.33 17.5312C110.348 17.7983 110.37 18.0075 110.397 18.1589C110.424 18.3014 110.459 18.4305 110.504 18.5462C110.557 18.662 110.624 18.7688 110.704 18.8667C110.784 18.9647 110.9 19.0537 111.052 19.1339C111.203 19.214 111.403 19.2852 111.653 19.3475V20.229H105.135V19.3475Z" fill="#979797"/>
<path d="M123.926 16.81L124.955 18.0521C124.082 18.9068 123.236 19.5212 122.417 19.8951C121.607 20.2602 120.721 20.4427 119.759 20.4427C117.827 20.4427 116.354 19.8773 115.339 18.7465C114.324 17.6069 113.816 15.9553 113.816 13.7917C113.816 12.3315 114.092 11.0716 114.644 10.0121C115.205 8.94365 116.006 8.13787 117.048 7.59475C118.09 7.04272 119.283 6.76671 120.627 6.76671C121.349 6.76671 122.065 6.82013 122.778 6.92698C123.499 7.02492 124.153 7.16292 124.741 7.34099V10.5597H122.096C121.963 9.72272 121.763 9.11282 121.495 8.72996C121.228 8.3471 120.845 8.15568 120.347 8.15568C120.017 8.15568 119.701 8.24026 119.399 8.40943C119.105 8.5697 118.842 8.85461 118.611 9.26418C118.388 9.66484 118.21 10.208 118.076 10.8935C117.943 11.5702 117.876 12.4294 117.876 13.4711C117.876 14.5129 117.974 15.3943 118.17 16.1155C118.366 16.8278 118.682 17.3798 119.118 17.7716C119.554 18.1544 120.129 18.3459 120.841 18.3459C121.357 18.3459 121.843 18.2346 122.297 18.012C122.76 17.7894 123.303 17.3887 123.926 16.81Z" fill="#979797"/>
<path d="M1.92514 28.794H3.95272L3.34201 31.4518C3.25406 31.8297 3.20032 32.0902 3.18078 32.2336C3.16123 32.3769 3.15146 32.4892 3.15146 32.5707C3.15146 32.7238 3.18078 32.8345 3.23941 32.9029C3.30129 32.9713 3.39086 33.0055 3.50812 33.0055C3.57326 33.0055 3.64329 32.9908 3.71821 32.9615C3.79312 32.929 3.86804 32.8834 3.94295 32.8247C4.01787 32.7628 4.10907 32.6782 4.21655 32.5707C4.32404 32.4632 4.4185 32.3492 4.49993 32.2287C4.58136 32.1049 4.64813 31.973 4.70024 31.8329C4.75561 31.6929 4.8061 31.5154 4.8517 31.3004L5.38913 28.794H6.79134L6.02428 32.2433C6.00799 32.3215 5.98519 32.4339 5.95588 32.5804C5.92982 32.7238 5.91679 32.8443 5.91679 32.942C5.91679 33.0788 5.95425 33.1732 6.02917 33.2254C6.10734 33.2742 6.22785 33.3052 6.39071 33.3182L6.31742 33.6407H4.4755L4.73933 32.6391L4.6807 32.6195C4.37778 32.9974 4.08464 33.2758 3.80127 33.455C3.52115 33.6309 3.20195 33.7188 2.84366 33.7188C2.51469 33.7188 2.25411 33.626 2.06194 33.4403C1.86977 33.2514 1.77368 32.9925 1.77368 32.6635C1.77368 32.4518 1.80625 32.1994 1.8714 31.9062L2.27203 30.0985C2.3046 29.9487 2.32577 29.833 2.33554 29.7516C2.34857 29.6702 2.35509 29.6001 2.35509 29.5415C2.35509 29.3982 2.31926 29.2972 2.2476 29.2386C2.17594 29.18 2.04891 29.1393 1.86651 29.1165L1.92514 28.794Z" fill="#979797"/>
<path d="M12.4159 31.4616H10.9159L10.4713 33.6407H9.07889L9.84595 30.1913C9.91761 29.8689 9.95343 29.636 9.95343 29.4927C9.95343 29.3624 9.91761 29.2712 9.84595 29.2191C9.77755 29.1669 9.65541 29.1327 9.47952 29.1165L9.5528 28.794L10.8964 28.7402H11.4778L11.0478 30.8313H12.5527L12.9973 28.794H14.3848L13.6177 32.2433C13.5461 32.5658 13.5103 32.7987 13.5103 32.942C13.5103 33.0723 13.5445 33.1635 13.6129 33.2156C13.6845 33.2677 13.8083 33.3019 13.9842 33.3182L13.9109 33.6407H11.9468L12.4159 31.4616Z" fill="#979797"/>
<path d="M20.0093 31.4616H18.5094L18.0648 33.6407H16.6723L17.4394 30.1913C17.5111 29.8689 17.5469 29.636 17.5469 29.4927C17.5469 29.3624 17.5111 29.2712 17.4394 29.2191C17.371 29.1669 17.2489 29.1327 17.073 29.1165L17.1463 28.794L18.4898 28.7402H19.0713L18.6413 30.8313H20.1461L20.5907 28.794H21.9783L21.2112 32.2433C21.1395 32.5658 21.1037 32.7987 21.1037 32.942C21.1037 33.0723 21.1379 33.1635 21.2063 33.2156C21.278 33.2677 21.4018 33.3019 21.5776 33.3182L21.5044 33.6407H19.5403L20.0093 31.4616Z" fill="#979797"/>
<path d="M26.1468 33.7188C25.7885 33.7188 25.4726 33.6553 25.199 33.5283C24.9286 33.398 24.7153 33.2026 24.559 32.942C24.4059 32.6782 24.3293 32.3573 24.3293 31.9795C24.3293 31.8362 24.3391 31.6766 24.3586 31.5007C24.3847 31.2792 24.4303 31.0528 24.4954 30.8216C24.5704 30.5545 24.6648 30.3167 24.7788 30.1083C24.9026 29.8737 25.0459 29.6718 25.2088 29.5024C25.3716 29.3298 25.5475 29.1881 25.7364 29.0774C25.9286 28.9634 26.1371 28.877 26.3618 28.8184C26.6289 28.75 26.909 28.7158 27.2021 28.7158C27.606 28.7158 27.9448 28.7907 28.2184 28.9406C28.492 29.0871 28.6939 29.2923 28.8242 29.5562C28.9578 29.82 29.0245 30.1262 29.0245 30.4747C29.0245 30.9046 28.9529 31.3362 28.8096 31.7694C28.6662 32.2026 28.4676 32.5658 28.2135 32.8589C27.9627 33.1521 27.6647 33.3687 27.3194 33.5087C26.9741 33.6488 26.5833 33.7188 26.1468 33.7188ZM25.6436 32.2971C25.6436 32.6032 25.6924 32.8329 25.7902 32.986C25.8911 33.1358 26.0491 33.2107 26.2641 33.2107C26.3846 33.2107 26.4986 33.1863 26.6061 33.1374C26.7168 33.0853 26.8243 32.999 26.9285 32.8785C27.036 32.7547 27.1321 32.6 27.2168 32.4143C27.3015 32.2254 27.3813 31.9942 27.4562 31.7206C27.5344 31.4437 27.5946 31.1733 27.637 30.9095C27.6793 30.6457 27.7005 30.3998 27.7005 30.1718C27.7005 29.8461 27.65 29.6067 27.549 29.4536C27.4513 29.3005 27.2982 29.2239 27.0898 29.2239C26.8162 29.2239 26.5784 29.3575 26.3765 29.6246C26.1778 29.8884 26.0051 30.2988 25.8586 30.8558C25.7153 31.4095 25.6436 31.8899 25.6436 32.2971Z" fill="#979797"/>
<path d="M35.0448 31.1001V31.1636C35.6441 31.2971 35.9438 31.6277 35.9438 32.1554C35.9438 32.6668 35.7239 33.056 35.2842 33.3231C34.8445 33.5869 34.2419 33.7188 33.4765 33.7188C32.8381 33.7188 32.3397 33.569 31.9814 33.2693C31.6231 32.9664 31.444 32.5381 31.444 31.9844C31.444 31.4926 31.5547 30.9698 31.7762 30.4161C32.001 29.8623 32.3527 29.4405 32.8315 29.1507C33.3103 28.8608 33.8918 28.7158 34.5758 28.7158C35.0969 28.7158 35.5089 28.8168 35.8118 29.0187C36.1148 29.2174 36.2662 29.4861 36.2662 29.8249C36.2662 30.447 35.8591 30.8721 35.0448 31.1001ZM32.9097 30.9486C34.3494 30.9356 35.0692 30.5838 35.0692 29.8933C35.0692 29.7011 35.0057 29.5415 34.8787 29.4145C34.7516 29.2875 34.5839 29.2239 34.3754 29.2239C33.737 29.2239 33.2485 29.7988 32.9097 30.9486ZM32.8267 31.4225C32.7713 31.6636 32.7436 31.9127 32.7436 32.17C32.7436 32.8084 33.0009 33.1276 33.5155 33.1276C33.8543 33.1276 34.1214 33.0511 34.3168 32.898C34.5122 32.7417 34.61 32.5218 34.61 32.2384C34.61 31.688 34.2875 31.4128 33.6426 31.4128H33.3983L32.8267 31.4225Z" fill="#979797"/>
<path d="M42.7604 29.0676L43.2001 28.7158L43.7473 28.794L42.9949 32.1994C42.9558 32.372 42.9265 32.5104 42.907 32.6146C42.8907 32.7189 42.8825 32.8068 42.8825 32.8785C42.8825 33.025 42.9184 33.1309 42.99 33.196C43.0617 33.2612 43.1887 33.3019 43.3711 33.3182L43.3174 33.6407H41.4412L41.7051 32.6391L41.6416 32.6195C41.4201 32.9062 41.2132 33.1293 41.0211 33.2889C40.8321 33.4452 40.6449 33.556 40.4592 33.6211C40.2768 33.6863 40.0651 33.7188 39.8241 33.7188C39.5961 33.7188 39.3957 33.6651 39.2231 33.5576C39.0505 33.4501 38.9137 33.2807 38.8127 33.0495C38.7117 32.815 38.6613 32.5186 38.6613 32.1603C38.6613 31.8183 38.7003 31.473 38.7785 31.1245C38.8599 30.776 38.9788 30.4519 39.1352 30.1522C39.2915 29.8493 39.4886 29.5904 39.7263 29.3754C39.9641 29.1604 40.2328 28.9976 40.5325 28.8868C40.8354 28.7728 41.1644 28.7158 41.5194 28.7158C42.0047 28.7158 42.4184 28.8331 42.7604 29.0676ZM42.0226 30.6017C42.0454 30.4975 42.0634 30.3819 42.0764 30.2548C42.0927 30.1245 42.1008 29.9991 42.1008 29.8786C42.1008 29.6637 42.0601 29.5008 41.9787 29.3901C41.8972 29.2793 41.7637 29.2239 41.578 29.2239C41.2751 29.2239 41.0064 29.377 40.7719 29.6832C40.5374 29.9861 40.3485 30.3949 40.2051 30.9095C40.0618 31.4242 39.9902 31.885 39.9902 32.2922C39.9902 32.53 40.0244 32.7075 40.0928 32.8247C40.1644 32.942 40.2735 33.0006 40.4201 33.0006C40.6351 33.0006 40.8533 32.8964 41.0748 32.6879C41.2996 32.4762 41.4803 32.2287 41.6171 31.9453C41.7539 31.6619 41.8761 31.2743 41.9836 30.7825L42.0226 30.6017Z" fill="#979797"/>
<path d="M46.4404 28.794H48.468L47.8572 31.4518C47.7302 32.0056 47.6667 32.3785 47.6667 32.5707C47.6667 32.8606 47.7856 33.0055 48.0234 33.0055C48.2188 33.0055 48.4647 32.8524 48.7611 32.5462C49.0575 32.2401 49.2594 31.8248 49.3669 31.3004L49.9044 28.794H51.3066L50.5395 32.2433C50.4679 32.5658 50.432 32.7987 50.432 32.942C50.432 33.1667 50.6177 33.2921 50.989 33.3182L50.2073 35.2187H48.9516L49.836 33.6602C49.3767 33.6602 49.1471 33.5169 49.1471 33.2302C49.1471 33.0902 49.1829 32.8931 49.2546 32.6391L49.1959 32.6195C48.8865 33.0006 48.5934 33.2791 48.3165 33.455C48.0429 33.6309 47.7237 33.7188 47.3589 33.7188C47.0267 33.7188 46.7645 33.626 46.5723 33.4403C46.3834 33.2547 46.2889 32.9957 46.2889 32.6635C46.2889 32.4583 46.3215 32.2059 46.3866 31.9062L46.7873 30.0985C46.8426 29.8477 46.8703 29.662 46.8703 29.5415C46.8703 29.3819 46.8264 29.2744 46.7384 29.2191C46.6505 29.1637 46.5316 29.1295 46.3817 29.1165L46.4404 28.794Z" fill="#979797"/>
<path d="M54.0045 28.794H56.0321L55.4214 31.4518C55.3334 31.8297 55.2797 32.0902 55.2602 32.2336C55.2406 32.3769 55.2309 32.4892 55.2309 32.5707C55.2309 32.7238 55.2602 32.8345 55.3188 32.9029C55.3807 32.9713 55.4702 33.0055 55.5875 33.0055C55.6526 33.0055 55.7227 32.9908 55.7976 32.9615C55.8725 32.929 55.9474 32.8834 56.0223 32.8247C56.0973 32.7628 56.1885 32.6782 56.2959 32.5707C56.4034 32.4632 56.4979 32.3492 56.5793 32.2287C56.6607 32.1049 56.7275 31.973 56.7796 31.8329C56.835 31.6929 56.8855 31.5154 56.9311 31.3004L57.4685 28.794H58.8707L58.1037 32.2433C58.0874 32.3215 58.0646 32.4339 58.0353 32.5804C58.0092 32.7238 57.9962 32.8443 57.9962 32.942C57.9962 33.0788 58.0336 33.1732 58.1086 33.2254C58.1867 33.2742 58.3072 33.3052 58.4701 33.3182L58.3968 33.6407H56.5549L56.8187 32.6391L56.7601 32.6195C56.4572 32.9974 56.164 33.2758 55.8806 33.455C55.6005 33.6309 55.2813 33.7188 54.923 33.7188C54.5941 33.7188 54.3335 33.626 54.1413 33.4403C53.9492 33.2514 53.8531 32.9925 53.8531 32.6635C53.8531 32.4518 53.8856 32.1994 53.9508 31.9062L54.3514 30.0985C54.384 29.9487 54.4052 29.833 54.4149 29.7516C54.428 29.6702 54.4345 29.6001 54.4345 29.5415C54.4345 29.3982 54.3986 29.2972 54.327 29.2386C54.2553 29.18 54.1283 29.1393 53.9459 29.1165L54.0045 28.794Z" fill="#979797"/>
<path d="M61.5687 28.794H63.5963L62.9855 31.4518C62.8976 31.8297 62.8438 32.0902 62.8243 32.2336C62.8048 32.3769 62.795 32.4892 62.795 32.5707C62.795 32.7238 62.8243 32.8345 62.8829 32.9029C62.9448 32.9713 63.0344 33.0055 63.1517 33.0055C63.2168 33.0055 63.2868 32.9908 63.3617 32.9615C63.4367 32.929 63.5116 32.8834 63.5865 32.8247C63.6614 32.7628 63.7526 32.6782 63.8601 32.5707C63.9676 32.4632 64.062 32.3492 64.1435 32.2287C64.2249 32.1049 64.2917 31.973 64.3438 31.8329C64.3991 31.6929 64.4496 31.5154 64.4952 31.3004L65.0327 28.794H66.4349L65.6678 32.2433C65.6515 32.3215 65.6287 32.4339 65.5994 32.5804C65.5734 32.7238 65.5603 32.8443 65.5603 32.942C65.5603 33.0788 65.5978 33.1732 65.6727 33.2254C65.7509 33.2742 65.8714 33.3052 66.0342 33.3182L65.961 33.6407H64.119L64.3829 32.6391L64.3242 32.6195C64.0213 32.9974 63.7282 33.2758 63.4448 33.455C63.1647 33.6309 62.8455 33.7188 62.4872 33.7188C62.1582 33.7188 61.8976 33.626 61.7055 33.4403C61.5133 33.2514 61.4172 32.9925 61.4172 32.6635C61.4172 32.4518 61.4498 32.1994 61.5149 31.9062L61.9156 30.0985C61.9481 29.9487 61.9693 29.833 61.9791 29.7516C61.9921 29.6702 61.9986 29.6001 61.9986 29.5415C61.9986 29.3982 61.9628 29.2972 61.8911 29.2386C61.8195 29.18 61.6924 29.1393 61.51 29.1165L61.5687 28.794Z" fill="#979797"/>
<path d="M73.9304 32.2042C73.8816 31.9697 73.8115 31.7987 73.7203 31.6912C73.6324 31.5838 73.4874 31.53 73.2855 31.53C73.0933 31.7092 72.9386 31.8622 72.8214 31.9893L72.4842 33.6407H71.082L71.8589 30.1913C71.9305 29.8721 71.9664 29.6392 71.9664 29.4927C71.9664 29.3526 71.9305 29.2581 71.8589 29.2093C71.7872 29.1604 71.6585 29.1279 71.4729 29.1116L71.5511 28.794L73.0119 28.7158H73.564L73.0412 31.1098C73.6568 30.4128 74.191 29.8395 74.6437 29.3901C75.0997 28.9406 75.5981 28.7158 76.1388 28.7158C76.3603 28.7158 76.5606 28.7598 76.7397 28.8477L76.4564 30.0789H75.8749C75.8619 29.9454 75.8163 29.8412 75.7381 29.7663C75.66 29.6881 75.5737 29.649 75.4792 29.649C75.3391 29.649 75.1616 29.7337 74.9467 29.9031C74.7349 30.0724 74.4092 30.3998 73.9695 30.8851V30.9095C74.2822 30.9095 74.5509 30.9926 74.7757 31.1587C75.0037 31.3248 75.1519 31.5447 75.2203 31.8183L75.4792 32.8052C75.5281 32.9843 75.5867 33.1097 75.6551 33.1814C75.7267 33.2498 75.8766 33.2938 76.1046 33.3133L76.0313 33.6407H74.2627C74.2268 33.5723 74.1535 33.2726 74.0428 32.7417L73.9304 32.2042Z" fill="#979797"/>
<path d="M79.3853 30.2353C79.4635 29.8835 79.5026 29.6392 79.5026 29.5024C79.5026 29.3689 79.4684 29.2761 79.4 29.2239C79.3316 29.1686 79.2078 29.1327 79.0287 29.1165L79.102 28.794L80.426 28.7402H80.9585L80.6801 29.7956L80.7387 29.8151C80.9602 29.5317 81.1654 29.3119 81.3543 29.1555C81.5432 28.9959 81.7305 28.8836 81.9162 28.8184C82.1018 28.75 82.3152 28.7158 82.5562 28.7158C82.7842 28.7158 82.9845 28.7696 83.1571 28.877C83.3298 28.9845 83.4666 29.1555 83.5675 29.3901C83.6685 29.6213 83.719 29.9161 83.719 30.2744C83.719 30.6164 83.6783 30.9616 83.5968 31.3102C83.5187 31.6587 83.4014 31.9844 83.2451 32.2873C83.092 32.587 82.8966 32.8443 82.6588 33.0592C82.421 33.2742 82.1507 33.4387 81.8478 33.5527C81.5481 33.6635 81.2207 33.7188 80.8657 33.7188C80.5758 33.7188 80.2957 33.6683 80.0254 33.5674L79.8055 34.5983C79.7957 34.6504 79.786 34.6992 79.7762 34.7448C79.7697 34.7937 79.7648 34.8377 79.7615 34.8767C79.7583 34.9191 79.7567 34.9582 79.7567 34.994C79.7567 35.1341 79.7925 35.235 79.8641 35.2969C79.9391 35.3588 80.0661 35.3995 80.2452 35.4191L80.1915 35.7415H78.159L79.3853 30.2353ZM80.3625 31.8329C80.3104 32.074 80.2843 32.3101 80.2843 32.5414C80.2843 32.7791 80.3234 32.9501 80.4016 33.0544C80.483 33.1586 80.6182 33.2107 80.8071 33.2107C80.9276 33.2107 81.0383 33.1912 81.1393 33.1521C81.2435 33.113 81.3445 33.0495 81.4422 32.9615C81.5432 32.8703 81.6442 32.7384 81.7452 32.5658C81.8722 32.3508 81.9829 32.1065 82.0774 31.8329C82.1751 31.5593 82.2516 31.2727 82.307 30.973C82.3624 30.6701 82.3901 30.3933 82.3901 30.1425C82.3901 29.9014 82.3542 29.7239 82.2826 29.6099C82.2142 29.4927 82.1067 29.434 81.9601 29.434C81.7451 29.434 81.5253 29.5399 81.3005 29.7516C81.0791 29.9601 80.9015 30.2027 80.768 30.4796C80.6345 30.7564 80.5123 31.1473 80.4016 31.6522L80.3625 31.8329Z" fill="#979797"/>
<path d="M90.2634 29.0676L90.7031 28.7158L91.2503 28.794L90.4979 32.1994C90.4589 32.372 90.4295 32.5104 90.41 32.6146C90.3937 32.7189 90.3856 32.8068 90.3856 32.8785C90.3856 33.025 90.4214 33.1309 90.4931 33.196C90.5647 33.2612 90.6917 33.3019 90.8741 33.3182L90.8204 33.6407H88.9443L89.2081 32.6391L89.1446 32.6195C88.9231 32.9062 88.7163 33.1293 88.5241 33.2889C88.3352 33.4452 88.1479 33.556 87.9622 33.6211C87.7798 33.6863 87.5681 33.7188 87.3271 33.7188C87.0991 33.7188 86.8988 33.6651 86.7261 33.5576C86.5535 33.4501 86.4167 33.2807 86.3157 33.0495C86.2148 32.815 86.1643 32.5186 86.1643 32.1603C86.1643 31.8183 86.2034 31.473 86.2815 31.1245C86.363 30.776 86.4819 30.4519 86.6382 30.1522C86.7945 29.8493 86.9916 29.5904 87.2294 29.3754C87.4672 29.1604 87.7359 28.9976 88.0355 28.8868C88.3384 28.7728 88.6674 28.7158 89.0224 28.7158C89.5078 28.7158 89.9214 28.8331 90.2634 29.0676ZM89.5257 30.6017C89.5485 30.4975 89.5664 30.3819 89.5794 30.2548C89.5957 30.1245 89.6039 29.9991 89.6039 29.8786C89.6039 29.6637 89.5631 29.5008 89.4817 29.3901C89.4003 29.2793 89.2667 29.2239 89.0811 29.2239C88.7782 29.2239 88.5094 29.377 88.2749 29.6832C88.0404 29.9861 87.8515 30.3949 87.7082 30.9095C87.5649 31.4242 87.4932 31.885 87.4932 32.2922C87.4932 32.53 87.5274 32.7075 87.5958 32.8247C87.6675 32.942 87.7766 33.0006 87.9232 33.0006C88.1381 33.0006 88.3564 32.8964 88.5778 32.6879C88.8026 32.4762 88.9834 32.2287 89.1202 31.9453C89.257 31.6619 89.3791 31.2743 89.4866 30.7825L89.5257 30.6017Z" fill="#979797"/>
<path d="M96.9935 32.3459L97.3893 32.771C97.0473 33.113 96.7053 33.3573 96.3633 33.5039C96.0213 33.6472 95.6451 33.7188 95.2347 33.7188C94.8992 33.7188 94.6125 33.6472 94.3748 33.5039C94.137 33.3605 93.9578 33.157 93.8373 32.8931C93.7201 32.626 93.6614 32.3134 93.6614 31.9551C93.6614 31.6717 93.6956 31.39 93.764 31.1098C93.8129 30.9046 93.8764 30.7027 93.9546 30.504C94.0588 30.2402 94.181 30.0105 94.321 29.8151C94.4871 29.5871 94.6858 29.3901 94.9171 29.2239C95.1516 29.0578 95.4138 28.9324 95.7037 28.8477C95.9968 28.7598 96.3111 28.7158 96.6466 28.7158C96.8649 28.7158 97.101 28.7337 97.3551 28.7696C97.6091 28.8021 97.8339 28.8494 98.0293 28.9113L97.7557 30.1034H96.8763C96.8828 30.035 96.886 29.9649 96.886 29.8933C96.886 29.6588 96.8502 29.4894 96.7785 29.3852C96.7069 29.2777 96.601 29.2239 96.461 29.2239C96.2199 29.2239 95.9903 29.3624 95.7721 29.6392C95.5539 29.9161 95.3715 30.3004 95.2249 30.7923C95.0783 31.2841 95.005 31.7157 95.005 32.087C95.005 32.6993 95.2281 33.0055 95.6744 33.0055C95.8991 33.0055 96.1108 32.955 96.3095 32.854C96.5115 32.7531 96.7395 32.5837 96.9935 32.3459Z" fill="#979797"/>
<path d="M101.72 33.7188C101.362 33.7188 101.046 33.6553 100.773 33.5283C100.502 33.398 100.289 33.2026 100.133 32.942C99.9795 32.6782 99.903 32.3573 99.903 31.9795C99.903 31.8362 99.9127 31.6766 99.9323 31.5007C99.9583 31.2792 100.004 31.0528 100.069 30.8216C100.144 30.5545 100.238 30.3167 100.352 30.1083C100.476 29.8737 100.62 29.6718 100.782 29.5024C100.945 29.3298 101.121 29.1881 101.31 29.0774C101.502 28.9634 101.711 28.877 101.935 28.8184C102.203 28.75 102.483 28.7158 102.776 28.7158C103.18 28.7158 103.518 28.7907 103.792 28.9406C104.066 29.0871 104.268 29.2923 104.398 29.5562C104.531 29.82 104.598 30.1262 104.598 30.4747C104.598 30.9046 104.527 31.3362 104.383 31.7694C104.24 32.2026 104.041 32.5658 103.787 32.8589C103.536 33.1521 103.238 33.3687 102.893 33.5087C102.548 33.6488 102.157 33.7188 101.72 33.7188ZM101.217 32.2971C101.217 32.6032 101.266 32.8329 101.364 32.986C101.465 33.1358 101.623 33.2107 101.838 33.2107C101.958 33.2107 102.072 33.1863 102.18 33.1374C102.29 33.0853 102.398 32.999 102.502 32.8785C102.61 32.7547 102.706 32.6 102.79 32.4143C102.875 32.2254 102.955 31.9942 103.03 31.7206C103.108 31.4437 103.168 31.1733 103.211 30.9095C103.253 30.6457 103.274 30.3998 103.274 30.1718C103.274 29.8461 103.224 29.6067 103.123 29.4536C103.025 29.3005 102.872 29.2239 102.663 29.2239C102.39 29.2239 102.152 29.3575 101.95 29.6246C101.751 29.8884 101.579 30.2988 101.432 30.8558C101.289 31.4095 101.217 31.8899 101.217 32.2971Z" fill="#979797"/>
<path d="M112.017 29.7272C112.294 29.3754 112.571 29.1197 112.848 28.9601C113.125 28.7972 113.436 28.7158 113.781 28.7158C114.116 28.7158 114.377 28.8103 114.563 28.9992C114.752 29.1849 114.846 29.4422 114.846 29.7711C114.846 29.9829 114.813 30.2353 114.748 30.5284L114.348 32.3362C114.315 32.486 114.292 32.6016 114.279 32.683C114.269 32.7645 114.265 32.8345 114.265 32.8931C114.265 33.0397 114.3 33.1423 114.372 33.2009C114.447 33.2596 114.574 33.2986 114.753 33.3182L114.695 33.6407H112.667L113.341 30.7043C113.377 30.5512 113.403 30.4258 113.419 30.3281C113.439 30.2304 113.452 30.1457 113.458 30.0741C113.468 30.0024 113.473 29.9373 113.473 29.8786C113.473 29.7321 113.442 29.6213 113.38 29.5464C113.322 29.4682 113.232 29.4291 113.112 29.4291C113.014 29.4291 112.901 29.4715 112.774 29.5562C112.647 29.6376 112.509 29.7597 112.359 29.9226C112.213 30.0855 112.094 30.2597 112.002 30.4454C111.911 30.6278 111.838 30.8574 111.783 31.1343L111.245 33.6407H109.838L110.542 30.5773C110.574 30.447 110.597 30.3428 110.61 30.2646C110.623 30.1864 110.631 30.1197 110.634 30.0643C110.641 30.0089 110.644 29.9584 110.644 29.9128C110.644 29.7435 110.615 29.6213 110.556 29.5464C110.498 29.4682 110.405 29.4291 110.278 29.4291C110.125 29.4291 109.941 29.5285 109.726 29.7272C109.514 29.9259 109.348 30.1294 109.227 30.3379C109.11 30.5431 109.019 30.8085 108.954 31.1343L108.416 33.6407H107.014L107.781 30.1913C107.797 30.1131 107.819 30.0024 107.845 29.8591C107.874 29.7125 107.889 29.5904 107.889 29.4927C107.889 29.3559 107.85 29.263 107.771 29.2142C107.697 29.1621 107.578 29.1295 107.415 29.1165L107.488 28.794L108.832 28.7402H109.345L109.066 29.7956L109.125 29.8151C109.353 29.535 109.561 29.3168 109.75 29.1604C109.942 29.0008 110.133 28.8868 110.322 28.8184C110.511 28.75 110.721 28.7158 110.952 28.7158C111.278 28.7158 111.533 28.8054 111.719 28.9845C111.908 29.1637 112.007 29.4112 112.017 29.7272Z" fill="#979797"/>
<path d="M117.804 29.1165L117.863 28.794H119.891L119.353 30.9193C119.698 30.8509 120.04 30.8167 120.379 30.8167C121.369 30.8167 121.864 31.2336 121.864 32.0674C121.864 32.5723 121.667 32.9746 121.273 33.2742C120.879 33.5706 120.351 33.7188 119.69 33.7188C118.439 33.7188 117.814 33.2107 117.814 32.1945C117.814 31.9404 117.868 31.5821 117.975 31.1196L118.21 30.0985C118.265 29.8575 118.293 29.6718 118.293 29.5415C118.293 29.3819 118.249 29.2744 118.161 29.2191C118.073 29.1637 117.954 29.1295 117.804 29.1165ZM119.226 31.4616C119.154 31.7873 119.119 32.0626 119.119 32.2873C119.119 32.8475 119.34 33.1276 119.783 33.1276C120.281 33.1276 120.531 32.8264 120.531 32.2238C120.531 31.6766 120.314 31.403 119.881 31.403C119.698 31.403 119.48 31.4225 119.226 31.4616ZM123.418 28.794H124.806L124.038 32.2433C123.967 32.5658 123.931 32.7987 123.931 32.942C123.931 33.0723 123.965 33.1635 124.034 33.2156C124.105 33.2677 124.229 33.3019 124.405 33.3182L124.332 33.6407H122.368L123.418 28.794Z" fill="#979797"/>
</svg>
