<svg width="155" height="36" viewBox="0 0 155 36" fill="none" xmlns="http://www.w3.org/2000/svg">
<path d="M153.873 0.873169C155.561 6.1883 155.127 11.1441 151.588 15.4898C148.842 18.8592 143.968 19.1914 140.571 16.466C140.056 16.0525 139.846 16.1271 139.541 16.6287C139.026 17.483 138.415 18.2762 138.51 19.3812C138.558 19.9168 138.192 20.2422 137.643 20.2287C137.073 20.2151 136.836 19.8422 136.836 19.3134C136.836 18.7372 137.1 18.1406 136.653 17.5914C136.47 17.3677 136.361 17.1982 136.009 17.3541C133.439 18.4999 130.592 16.7576 130.646 13.1237C130.666 11.7882 131.08 10.5746 132.158 9.59839C132.307 9.85601 132.449 10.0865 132.565 10.3238C133.026 11.2255 133.717 11.795 134.734 11.978C135.29 12.0797 135.832 12.2492 136.341 12.5271C137.71 13.2797 138.137 14.5542 137.453 15.9644C137.317 16.2423 137.107 16.5338 137.473 16.7169C137.792 16.8796 137.792 16.4525 137.954 16.3169C138.978 15.4627 139.202 14.4932 138.565 13.2593C138.246 12.6424 138.307 11.8831 138.314 11.178C138.327 9.31366 139.188 7.99164 140.863 7.1781C142.226 6.51371 143.683 6.14084 145.161 6.10016C148.788 6.00525 151.452 4.37817 153.364 1.37485C153.452 1.23926 153.561 1.11723 153.663 0.995195C153.676 0.961298 153.71 0.954523 153.873 0.873169Z" fill="#5F2E6C"/>
<path d="M5.61018 20.2291V19.3476C5.98414 19.2853 6.27796 19.2051 6.49164 19.1072C6.71423 19.0004 6.87895 18.8534 6.98579 18.6665C7.09264 18.4795 7.15942 18.2435 7.18613 17.9586C7.21284 17.6648 7.22619 17.3042 7.22619 16.8768V3.56147H6.1444C5.61018 3.56147 5.20062 3.62379 4.9157 3.74844C4.63079 3.87309 4.38148 4.06897 4.1678 4.33608C3.96301 4.60319 3.78494 4.96379 3.63358 5.41787C3.48222 5.86305 3.35757 6.28598 3.25963 6.68664H1.42993V1.99888H17.1493V6.68664H15.3196C15.1504 6.08119 15.0169 5.63601 14.9189 5.3511C14.821 5.06618 14.7097 4.82578 14.585 4.6299C14.4693 4.42512 14.3446 4.25595 14.2111 4.12239C14.0775 3.98884 13.9351 3.882 13.7837 3.80186C13.6324 3.72173 13.4409 3.66386 13.2094 3.62824C12.9868 3.58372 12.693 3.56147 12.328 3.56147H11.3664V16.8768C11.3664 17.3487 11.3797 17.7093 11.4064 17.9586C11.4332 18.199 11.4821 18.3949 11.5534 18.5463C11.6246 18.6976 11.7092 18.8223 11.8071 18.9202C11.914 19.0093 12.0564 19.0938 12.2345 19.174C12.4215 19.2452 12.6708 19.3031 12.9824 19.3476V20.2291H5.61018Z" fill="#5F2E6C"/>
<path d="M25.7769 14.5797H20.0741L19.6334 15.8485C19.5087 16.2046 19.4064 16.5519 19.3262 16.8902C19.2461 17.2196 19.206 17.5713 19.206 17.9453C19.206 18.8178 19.669 19.2853 20.595 19.3476V20.2291H14.8922V19.3476C15.2217 19.312 15.511 19.1962 15.7603 19.0004C16.0096 18.8045 16.2367 18.5374 16.4414 18.199C16.6462 17.8607 16.8644 17.3754 17.0959 16.7433L22.6651 1.90539H26.231L30.6383 16.8635C30.8342 17.5313 30.9989 18.0076 31.1324 18.2925C31.266 18.5685 31.4396 18.7956 31.6533 18.9736C31.867 19.1428 32.1653 19.2675 32.5481 19.3476V20.2291H25.1759V19.3476C25.6389 19.2942 25.9817 19.1651 26.2043 18.9603C26.4269 18.7555 26.5382 18.4661 26.5382 18.0922C26.5382 17.8162 26.507 17.509 26.4447 17.1707C26.3823 16.8323 26.28 16.4049 26.1375 15.8885L25.7769 14.5797ZM20.5816 13.0171H25.3896L23.2527 5.498L20.5816 13.0171Z" fill="#5F2E6C"/>
<path d="M45.2224 20.2291V19.5613C45.0978 19.2764 44.7728 18.3994 44.2475 16.9303C43.6331 15.1941 43.179 14.0143 42.8852 13.3911C42.5914 12.7589 42.2308 12.3004 41.8034 12.0155C41.3761 11.7216 40.7617 11.5747 39.9604 11.5747H39.6933V16.8768C39.6933 17.7583 39.7734 18.3548 39.9337 18.6665C40.1028 18.9692 40.5035 19.1962 41.1357 19.3476V20.2291H34.1241V19.3476C34.7384 19.1962 35.1302 18.9736 35.2993 18.6798C35.4685 18.3771 35.5531 17.7761 35.5531 16.8768V5.36445C35.5531 4.44738 35.4729 3.84638 35.3127 3.56147C35.1524 3.27655 34.7562 3.04951 34.1241 2.88034V1.99888H41.1357V2.88034C40.5124 3.04951 40.1162 3.281 39.947 3.57482C39.7779 3.86864 39.6933 4.46518 39.6933 5.36445V10.119H39.9737C41.0511 10.119 41.8702 9.80736 42.4311 9.18411C43.001 8.55195 43.4773 7.66604 43.8602 6.52637C44.3232 5.1285 44.7461 4.1402 45.1289 3.56147C45.5207 2.98273 46.0104 2.542 46.598 2.23928C47.1857 1.93655 47.9514 1.78519 48.8952 1.78519C49.6253 1.78519 50.2663 1.88758 50.8183 2.09237V5.39116H48.9352C48.8373 4.58093 48.4811 4.17582 47.8668 4.17582C47.4038 4.17582 47.0076 4.42067 46.6782 4.91037C46.3576 5.40006 46.0193 6.099 45.6632 7.00717C45.0933 8.51188 44.3009 9.5447 43.2859 10.1056V10.2392C44.2119 10.346 44.9509 10.5864 45.5029 10.9604C46.0638 11.3254 46.4912 11.7617 46.785 12.2692C47.0877 12.7767 47.5507 13.7784 48.174 15.2742C48.913 17.0638 49.4205 18.1679 49.6965 18.5863C49.9814 19.0048 50.4399 19.2586 51.0721 19.3476V20.2291H45.2224Z" fill="#5F2E6C"/>
<path d="M56.2407 16.1957V20.2291H52.648V16.1957H56.2407Z" fill="#5F2E6C"/>
<path d="M68.955 16.8101L69.9834 18.0521C69.1109 18.9069 68.265 19.5212 67.4459 19.8952C66.6357 20.2602 65.7497 20.4427 64.7881 20.4427C62.8561 20.4427 61.3825 19.8774 60.3675 18.7466C59.3525 17.6069 58.845 15.9553 58.845 13.7917C58.845 12.3315 59.121 11.0717 59.673 10.0121C60.2339 8.94371 61.0353 8.13793 62.077 7.59481C63.1187 7.04278 64.3118 6.76677 65.6562 6.76677C66.3774 6.76677 67.0942 6.82019 67.8065 6.92704C68.5277 7.02498 69.1821 7.16298 69.7697 7.34106V10.5597H67.1254C66.9918 9.72278 66.7915 9.11288 66.5244 8.73002C66.2572 8.34717 65.8744 8.15574 65.3758 8.15574C65.0464 8.15574 64.7303 8.24032 64.4276 8.40949C64.1337 8.56976 63.8711 8.85467 63.6396 9.26424C63.417 9.6649 63.2389 10.208 63.1054 10.8936C62.9718 11.5703 62.905 12.4295 62.905 13.4712C62.905 14.5129 63.003 15.3944 63.1988 16.1156C63.3947 16.8279 63.7108 17.3799 64.1471 17.7717C64.5834 18.1545 65.1576 18.3459 65.8699 18.3459C66.3863 18.3459 66.8716 18.2346 67.3257 18.0121C67.7887 17.7895 68.3318 17.3888 68.955 16.8101Z" fill="#5F2E6C"/>
<path d="M76.5944 16.3693C76.5944 17.2152 76.6211 17.7984 76.6745 18.1189C76.7279 18.4394 76.8348 18.6976 76.995 18.8935C77.1642 19.0805 77.4758 19.2318 77.9299 19.3476V20.2291H71.3857V19.3476C71.6528 19.2853 71.8621 19.214 72.0134 19.1339C72.1648 19.0449 72.2805 18.9469 72.3607 18.8401C72.4497 18.7243 72.5254 18.5819 72.5877 18.4127C72.65 18.2346 72.6901 17.9942 72.7079 17.6915C72.7257 17.3799 72.7346 16.9392 72.7346 16.3693V5.95209C72.7346 5.18638 72.7257 4.62545 72.7079 4.2693C72.699 3.90426 72.6723 3.60153 72.6278 3.36113C72.5922 3.11183 72.5254 2.91595 72.4275 2.7735C72.3384 2.62213 72.2093 2.50193 72.0402 2.4129C71.871 2.32386 71.5994 2.24373 71.2255 2.1725V1.29104L74.9249 1.10406H76.5944V16.3693Z" fill="#5F2E6C"/>
<path d="M85.1018 1.65164V4.92372H81.4424V1.65164H85.1018ZM80.0267 19.3476C80.463 19.2318 80.7612 19.0805 80.9215 18.8935C81.0907 18.7065 81.202 18.4528 81.2554 18.1323C81.3177 17.8117 81.3489 17.2285 81.3489 16.3827V10.1724C81.3489 9.73613 81.3266 9.38444 81.2821 9.11733C81.2465 8.85022 81.1708 8.63653 81.0551 8.47627C80.9482 8.316 80.7969 8.1958 80.601 8.11567C80.414 8.02664 80.1692 7.95095 79.8664 7.88863V6.98046L83.5392 6.87362H85.2086V16.3693C85.2086 16.8679 85.2131 17.2552 85.222 17.5313C85.2398 17.7984 85.262 18.0076 85.2887 18.159C85.3155 18.3014 85.3511 18.4305 85.3956 18.5463C85.449 18.662 85.5158 18.7689 85.5959 18.8668C85.676 18.9647 85.7918 19.0538 85.9432 19.1339C86.0945 19.214 86.2949 19.2853 86.5442 19.3476V20.2291H80.0267V19.3476Z" fill="#5F2E6C"/>
<path d="M103.158 20.2291H96.6809V19.3476C97.0905 19.2497 97.3754 19.1072 97.5357 18.9202C97.696 18.7243 97.8028 18.4661 97.8562 18.1456C97.9185 17.8162 97.9497 17.2285 97.9497 16.3827V12.8168C97.9497 12.1846 97.9363 11.6682 97.9096 11.2676C97.8829 10.858 97.8384 10.5241 97.7761 10.2659C97.7227 10.0077 97.6425 9.79401 97.5357 9.62484C97.4378 9.44676 97.3265 9.30431 97.2018 9.19746C97.0772 9.08171 96.9347 8.99713 96.7744 8.94371C96.6142 8.89029 96.4094 8.86358 96.1601 8.86358C95.8217 8.86358 95.47 8.97042 95.105 9.18411C94.7399 9.38889 94.4328 9.67826 94.1835 10.0522C93.9342 10.4173 93.8095 10.809 93.8095 11.2275V16.3693C93.8095 17.2152 93.8362 17.8028 93.8896 18.1323C93.9431 18.4617 94.0499 18.7243 94.2102 18.9202C94.3793 19.1072 94.6732 19.2497 95.0916 19.3476V20.2291H88.641V19.3476C89.0683 19.2318 89.3622 19.0805 89.5224 18.8935C89.6916 18.7065 89.8029 18.4528 89.8563 18.1323C89.9186 17.8117 89.9498 17.2285 89.9498 16.3827V10.8936C89.9498 10.2347 89.9364 9.74949 89.9097 9.43786C89.8919 9.11733 89.8385 8.86358 89.7495 8.6766C89.6693 8.48072 89.5402 8.32491 89.3622 8.20916C89.193 8.08451 88.8947 7.97767 88.4673 7.88863V6.98046L92.1267 6.87362H93.8095L93.6092 8.7968L93.7694 8.83686C94.3215 8.34717 94.8067 7.96431 95.2252 7.6883C95.6437 7.40338 96.0799 7.18079 96.534 7.02053C96.997 6.85136 97.4823 6.76677 97.9898 6.76677C98.7199 6.76677 99.3253 6.87362 99.8061 7.0873C100.287 7.29209 100.674 7.59481 100.968 7.99547C101.271 8.39614 101.484 8.88583 101.609 9.46457C101.743 10.0433 101.809 10.7155 101.809 11.4812V16.3693C101.809 16.7611 101.814 17.1306 101.823 17.4778C101.841 17.8162 101.876 18.0877 101.93 18.2925C101.983 18.4973 102.054 18.6665 102.143 18.8C102.241 18.9247 102.375 19.0315 102.544 19.1206C102.713 19.2096 102.918 19.2853 103.158 19.3476V20.2291Z" fill="#5F2E6C"/>
<path d="M110.21 1.65164V4.92372H106.551V1.65164H110.21ZM105.135 19.3476C105.571 19.2318 105.869 19.0805 106.03 18.8935C106.199 18.7065 106.31 18.4528 106.364 18.1323C106.426 17.8117 106.457 17.2285 106.457 16.3827V10.1724C106.457 9.73613 106.435 9.38444 106.39 9.11733C106.355 8.85022 106.279 8.63653 106.163 8.47627C106.056 8.316 105.905 8.1958 105.709 8.11567C105.522 8.02664 105.277 7.95095 104.975 7.88863V6.98046L108.647 6.87362H110.317V16.3693C110.317 16.8679 110.321 17.2552 110.33 17.5313C110.348 17.7984 110.37 18.0076 110.397 18.159C110.424 18.3014 110.459 18.4305 110.504 18.5463C110.557 18.662 110.624 18.7689 110.704 18.8668C110.784 18.9647 110.9 19.0538 111.051 19.1339C111.203 19.214 111.403 19.2853 111.652 19.3476V20.2291H105.135V19.3476Z" fill="#5F2E6C"/>
<path d="M123.926 16.8101L124.954 18.0521C124.082 18.9069 123.236 19.5212 122.417 19.8952C121.607 20.2602 120.721 20.4427 119.759 20.4427C117.827 20.4427 116.354 19.8774 115.338 18.7466C114.323 17.6069 113.816 15.9553 113.816 13.7917C113.816 12.3315 114.092 11.0717 114.644 10.0121C115.205 8.94371 116.006 8.13793 117.048 7.59481C118.09 7.04278 119.283 6.76677 120.627 6.76677C121.348 6.76677 122.065 6.82019 122.777 6.92704C123.499 7.02498 124.153 7.16298 124.741 7.34106V10.5597H122.096C121.963 9.72278 121.762 9.11288 121.495 8.73002C121.228 8.34717 120.845 8.15574 120.347 8.15574C120.017 8.15574 119.701 8.24032 119.399 8.40949C119.105 8.56976 118.842 8.85467 118.611 9.26424C118.388 9.6649 118.21 10.208 118.076 10.8936C117.943 11.5703 117.876 12.4295 117.876 13.4712C117.876 14.5129 117.974 15.3944 118.17 16.1156C118.366 16.8279 118.682 17.3799 119.118 17.7717C119.554 18.1545 120.129 18.3459 120.841 18.3459C121.357 18.3459 121.843 18.2346 122.297 18.0121C122.76 17.7895 123.303 17.3888 123.926 16.8101Z" fill="#5F2E6C"/>
<path d="M1.92502 28.794H3.9526L3.34188 31.4519C3.25394 31.8297 3.2002 32.0903 3.18065 32.2336C3.16111 32.3769 3.15134 32.4893 3.15134 32.5707C3.15134 32.7238 3.18065 32.8345 3.23928 32.9029C3.30117 32.9713 3.39074 33.0055 3.508 33.0055C3.57314 33.0055 3.64317 32.9909 3.71809 32.9616C3.793 32.929 3.86792 32.8834 3.94283 32.8248C4.01775 32.7629 4.10895 32.6782 4.21643 32.5707C4.32392 32.4632 4.41838 32.3492 4.49981 32.2287C4.58123 32.1049 4.64801 31.973 4.70012 31.833C4.75549 31.6929 4.80598 31.5154 4.85158 31.3004L5.38901 28.794H6.79122L6.02416 32.2434C6.00787 32.3215 5.98507 32.4339 5.95576 32.5805C5.9297 32.7238 5.91667 32.8443 5.91667 32.942C5.91667 33.0788 5.95413 33.1733 6.02904 33.2254C6.10722 33.2743 6.22773 33.3052 6.39059 33.3182L6.3173 33.6407H4.47538L4.73921 32.6391L4.68058 32.6196C4.37766 32.9974 4.08452 33.2759 3.80114 33.455C3.52103 33.6309 3.20183 33.7189 2.84354 33.7189C2.51456 33.7189 2.25399 33.626 2.06182 33.4404C1.86965 33.2515 1.77356 32.9925 1.77356 32.6635C1.77356 32.4518 1.80613 32.1994 1.87127 31.9062L2.27191 30.0985C2.30448 29.9487 2.32565 29.8331 2.33542 29.7516C2.34845 29.6702 2.35496 29.6002 2.35496 29.5415C2.35496 29.3982 2.31913 29.2973 2.24748 29.2386C2.17582 29.18 2.04879 29.1393 1.86639 29.1165L1.92502 28.794Z" fill="#5F2E6C"/>
<path d="M12.4157 31.4616H10.9158L10.4712 33.6407H9.07876L9.84583 30.1913C9.91748 29.8689 9.95331 29.636 9.95331 29.4927C9.95331 29.3624 9.91748 29.2712 9.84583 29.2191C9.77743 29.167 9.65528 29.1328 9.4794 29.1165L9.55268 28.794L10.8963 28.7403H11.4777L11.0477 30.8314H12.5525L12.9971 28.794H14.3847L13.6176 32.2434C13.546 32.5658 13.5101 32.7987 13.5101 32.942C13.5101 33.0723 13.5443 33.1635 13.6127 33.2156C13.6844 33.2677 13.8082 33.3019 13.9841 33.3182L13.9108 33.6407H11.9467L12.4157 31.4616Z" fill="#5F2E6C"/>
<path d="M20.0092 31.4616H18.5093L18.0647 33.6407H16.6722L17.4393 30.1913C17.5109 29.8689 17.5468 29.636 17.5468 29.4927C17.5468 29.3624 17.5109 29.2712 17.4393 29.2191C17.3709 29.167 17.2487 29.1328 17.0729 29.1165L17.1461 28.794L18.4897 28.7403H19.0711L18.6412 30.8314H20.146L20.5906 28.794H21.9781L21.2111 32.2434C21.1394 32.5658 21.1036 32.7987 21.1036 32.942C21.1036 33.0723 21.1378 33.1635 21.2062 33.2156C21.2779 33.2677 21.4016 33.3019 21.5775 33.3182L21.5042 33.6407H19.5402L20.0092 31.4616Z" fill="#5F2E6C"/>
<path d="M26.1467 33.7189C25.7884 33.7189 25.4725 33.6553 25.1989 33.5283C24.9285 33.398 24.7152 33.2026 24.5588 32.942C24.4057 32.6782 24.3292 32.3574 24.3292 31.9795C24.3292 31.8362 24.339 31.6766 24.3585 31.5007C24.3846 31.2792 24.4302 31.0529 24.4953 30.8216C24.5702 30.5545 24.6647 30.3167 24.7787 30.1083C24.9025 29.8738 25.0458 29.6718 25.2086 29.5025C25.3715 29.3298 25.5474 29.1881 25.7363 29.0774C25.9285 28.9634 26.1369 28.8771 26.3617 28.8185C26.6288 28.7501 26.9089 28.7159 27.202 28.7159C27.6059 28.7159 27.9447 28.7908 28.2183 28.9406C28.4919 29.0872 28.6938 29.2924 28.8241 29.5562C28.9576 29.82 29.0244 30.1262 29.0244 30.4747C29.0244 30.9047 28.9527 31.3362 28.8094 31.7694C28.6661 32.2026 28.4674 32.5658 28.2134 32.859C27.9626 33.1521 27.6645 33.3687 27.3193 33.5088C26.974 33.6488 26.5832 33.7189 26.1467 33.7189ZM25.6435 32.2971C25.6435 32.6033 25.6923 32.8329 25.79 32.986C25.891 33.1358 26.049 33.2107 26.264 33.2107C26.3845 33.2107 26.4985 33.1863 26.606 33.1375C26.7167 33.0853 26.8242 32.999 26.9284 32.8785C27.0359 32.7547 27.132 32.6 27.2167 32.4144C27.3014 32.2254 27.3812 31.9942 27.4561 31.7206C27.5343 31.4437 27.5945 31.1734 27.6369 30.9096C27.6792 30.6457 27.7004 30.3998 27.7004 30.1718C27.7004 29.8461 27.6499 29.6067 27.5489 29.4536C27.4512 29.3005 27.2981 29.224 27.0897 29.224C26.816 29.224 26.5783 29.3575 26.3763 29.6246C26.1776 29.8884 26.005 30.2988 25.8584 30.8558C25.7151 31.4095 25.6435 31.89 25.6435 32.2971Z" fill="#5F2E6C"/>
<path d="M35.0447 31.1001V31.1636C35.644 31.2972 35.9436 31.6278 35.9436 32.1554C35.9436 32.6668 35.7238 33.056 35.2841 33.3231C34.8443 33.5869 34.2418 33.7189 33.4763 33.7189C32.8379 33.7189 32.3396 33.569 31.9813 33.2694C31.623 32.9664 31.4439 32.5381 31.4439 31.9844C31.4439 31.4926 31.5546 30.9698 31.7761 30.4161C32.0008 29.8624 32.3526 29.4406 32.8314 29.1507C33.3102 28.8608 33.8916 28.7159 34.5756 28.7159C35.0968 28.7159 35.5088 28.8168 35.8117 29.0188C36.1146 29.2175 36.2661 29.4862 36.2661 29.8249C36.2661 30.447 35.859 30.8721 35.0447 31.1001ZM32.9096 30.9486C34.3493 30.9356 35.0691 30.5838 35.0691 29.8933C35.0691 29.7011 35.0056 29.5415 34.8785 29.4145C34.7515 29.2875 34.5838 29.224 34.3753 29.224C33.7369 29.224 33.2483 29.7989 32.9096 30.9486ZM32.8265 31.4226C32.7712 31.6636 32.7435 31.9128 32.7435 32.1701C32.7435 32.8085 33.0008 33.1277 33.5154 33.1277C33.8542 33.1277 34.1213 33.0511 34.3167 32.898C34.5121 32.7417 34.6098 32.5218 34.6098 32.2385C34.6098 31.688 34.2874 31.4128 33.6425 31.4128H33.3982L32.8265 31.4226Z" fill="#5F2E6C"/>
<path d="M42.7603 29.0676L43.2 28.7159L43.7472 28.794L42.9948 32.1994C42.9557 32.372 42.9264 32.5104 42.9068 32.6147C42.8906 32.7189 42.8824 32.8068 42.8824 32.8785C42.8824 33.0251 42.9182 33.1309 42.9899 33.1961C43.0616 33.2612 43.1886 33.3019 43.371 33.3182L43.3172 33.6407H41.4411L41.7049 32.6391L41.6414 32.6196C41.4199 32.9062 41.2131 33.1293 41.0209 33.2889C40.832 33.4453 40.6447 33.556 40.4591 33.6211C40.2767 33.6863 40.065 33.7189 39.8239 33.7189C39.5959 33.7189 39.3956 33.6651 39.223 33.5576C39.0504 33.4501 38.9136 33.2808 38.8126 33.0495C38.7116 32.815 38.6611 32.5186 38.6611 32.1603C38.6611 31.8183 38.7002 31.473 38.7784 31.1245C38.8598 30.776 38.9787 30.4519 39.135 30.1523C39.2914 29.8493 39.4884 29.5904 39.7262 29.3754C39.964 29.1605 40.2327 28.9976 40.5324 28.8869C40.8353 28.7729 41.1643 28.7159 41.5193 28.7159C42.0046 28.7159 42.4183 28.8331 42.7603 29.0676ZM42.0225 30.6017C42.0453 30.4975 42.0632 30.3819 42.0763 30.2549C42.0926 30.1246 42.1007 29.9992 42.1007 29.8787C42.1007 29.6637 42.06 29.5008 41.9785 29.3901C41.8971 29.2793 41.7636 29.224 41.5779 29.224C41.275 29.224 41.0063 29.3771 40.7718 29.6832C40.5373 29.9861 40.3483 30.3949 40.205 30.9096C40.0617 31.4242 39.9901 31.8851 39.9901 32.2922C39.9901 32.53 40.0243 32.7075 40.0927 32.8248C40.1643 32.942 40.2734 33.0006 40.42 33.0006C40.635 33.0006 40.8532 32.8964 41.0747 32.688C41.2994 32.4762 41.4802 32.2287 41.617 31.9453C41.7538 31.662 41.8759 31.2744 41.9834 30.7825L42.0225 30.6017Z" fill="#5F2E6C"/>
<path d="M46.4403 28.794H48.4678L47.8571 31.4519C47.7301 32.0056 47.6666 32.3785 47.6666 32.5707C47.6666 32.8606 47.7855 33.0055 48.0232 33.0055C48.2187 33.0055 48.4646 32.8524 48.761 32.5463C49.0574 32.2401 49.2593 31.8248 49.3668 31.3004L49.9042 28.794H51.3065L50.5394 32.2434C50.4677 32.5658 50.4319 32.7987 50.4319 32.942C50.4319 33.1668 50.6176 33.2922 50.9889 33.3182L50.2072 35.2188H48.9515L49.8358 33.6602C49.3766 33.6602 49.147 33.5169 49.147 33.2303C49.147 33.0902 49.1828 32.8932 49.2544 32.6391L49.1958 32.6196C48.8864 33.0006 48.5932 33.2791 48.3164 33.455C48.0428 33.6309 47.7236 33.7189 47.3588 33.7189C47.0265 33.7189 46.7643 33.626 46.5722 33.4404C46.3832 33.2547 46.2888 32.9958 46.2888 32.6635C46.2888 32.4583 46.3214 32.2059 46.3865 31.9062L46.7871 30.0985C46.8425 29.8477 46.8702 29.6621 46.8702 29.5415C46.8702 29.3819 46.8262 29.2745 46.7383 29.2191C46.6503 29.1637 46.5315 29.1295 46.3816 29.1165L46.4403 28.794Z" fill="#5F2E6C"/>
<path d="M54.0044 28.794H56.032L55.4213 31.4519C55.3333 31.8297 55.2796 32.0903 55.26 32.2336C55.2405 32.3769 55.2307 32.4893 55.2307 32.5707C55.2307 32.7238 55.26 32.8345 55.3187 32.9029C55.3806 32.9713 55.4701 33.0055 55.5874 33.0055C55.6525 33.0055 55.7226 32.9909 55.7975 32.9616C55.8724 32.929 55.9473 32.8834 56.0222 32.8248C56.0971 32.7629 56.1883 32.6782 56.2958 32.5707C56.4033 32.4632 56.4978 32.3492 56.5792 32.2287C56.6606 32.1049 56.7274 31.973 56.7795 31.833C56.8349 31.6929 56.8854 31.5154 56.931 31.3004L57.4684 28.794H58.8706L58.1035 32.2434C58.0873 32.3215 58.0645 32.4339 58.0351 32.5805C58.0091 32.7238 57.9961 32.8443 57.9961 32.942C57.9961 33.0788 58.0335 33.1733 58.1084 33.2254C58.1866 33.2743 58.3071 33.3052 58.47 33.3182L58.3967 33.6407H56.5548L56.8186 32.6391L56.76 32.6196C56.457 32.9974 56.1639 33.2759 55.8805 33.455C55.6004 33.6309 55.2812 33.7189 54.9229 33.7189C54.5939 33.7189 54.3334 33.626 54.1412 33.4404C53.949 33.2515 53.8529 32.9925 53.8529 32.6635C53.8529 32.4518 53.8855 32.1994 53.9507 31.9062L54.3513 30.0985C54.3839 29.9487 54.405 29.8331 54.4148 29.7516C54.4278 29.6702 54.4343 29.6002 54.4343 29.5415C54.4343 29.3982 54.3985 29.2973 54.3269 29.2386C54.2552 29.18 54.1282 29.1393 53.9458 29.1165L54.0044 28.794Z" fill="#5F2E6C"/>
<path d="M61.5686 28.794H63.5961L62.9854 31.4519C62.8975 31.8297 62.8437 32.0903 62.8242 32.2336C62.8046 32.3769 62.7949 32.4893 62.7949 32.5707C62.7949 32.7238 62.8242 32.8345 62.8828 32.9029C62.9447 32.9713 63.0343 33.0055 63.1515 33.0055C63.2167 33.0055 63.2867 32.9909 63.3616 32.9616C63.4365 32.929 63.5114 32.8834 63.5864 32.8248C63.6613 32.7629 63.7525 32.6782 63.86 32.5707C63.9674 32.4632 64.0619 32.3492 64.1433 32.2287C64.2248 32.1049 64.2915 31.973 64.3437 31.833C64.399 31.6929 64.4495 31.5154 64.4951 31.3004L65.0325 28.794H66.4348L65.6677 32.2434C65.6514 32.3215 65.6286 32.4339 65.5993 32.5805C65.5732 32.7238 65.5602 32.8443 65.5602 32.942C65.5602 33.0788 65.5977 33.1733 65.6726 33.2254C65.7507 33.2743 65.8713 33.3052 66.0341 33.3182L65.9608 33.6407H64.1189L64.3827 32.6391L64.3241 32.6196C64.0212 32.9974 63.728 33.2759 63.4447 33.455C63.1646 33.6309 62.8454 33.7189 62.4871 33.7189C62.1581 33.7189 61.8975 33.626 61.7053 33.4404C61.5132 33.2515 61.4171 32.9925 61.4171 32.6635C61.4171 32.4518 61.4497 32.1994 61.5148 31.9062L61.9154 30.0985C61.948 29.9487 61.9692 29.8331 61.979 29.7516C61.992 29.6702 61.9985 29.6002 61.9985 29.5415C61.9985 29.3982 61.9627 29.2973 61.891 29.2386C61.8194 29.18 61.6923 29.1393 61.5099 29.1165L61.5686 28.794Z" fill="#5F2E6C"/>
<path d="M73.9303 32.2043C73.8814 31.9698 73.8114 31.7988 73.7202 31.6913C73.6323 31.5838 73.4873 31.53 73.2854 31.53C73.0932 31.7092 72.9385 31.8623 72.8212 31.9893L72.4841 33.6407H71.0819L71.8587 30.1913C71.9304 29.8721 71.9662 29.6393 71.9662 29.4927C71.9662 29.3526 71.9304 29.2582 71.8587 29.2093C71.7871 29.1605 71.6584 29.1279 71.4728 29.1116L71.5509 28.794L73.0118 28.7159H73.5639L73.0411 31.1099C73.6567 30.4128 74.1909 29.8396 74.6436 29.3901C75.0996 28.9406 75.598 28.7159 76.1387 28.7159C76.3601 28.7159 76.5605 28.7598 76.7396 28.8478L76.4562 30.079H75.8748C75.8618 29.9454 75.8162 29.8412 75.738 29.7663C75.6599 29.6881 75.5735 29.649 75.4791 29.649C75.339 29.649 75.1615 29.7337 74.9465 29.9031C74.7348 30.0725 74.4091 30.3998 73.9694 30.8851V30.9096C74.2821 30.9096 74.5508 30.9926 74.7755 31.1587C75.0035 31.3248 75.1517 31.5447 75.2201 31.8183L75.4791 32.8052C75.5279 32.9844 75.5866 33.1098 75.655 33.1814C75.7266 33.2498 75.8765 33.2938 76.1045 33.3133L76.0312 33.6407H74.2625C74.2267 33.5723 74.1534 33.2726 74.0427 32.7417L73.9303 32.2043Z" fill="#5F2E6C"/>
<path d="M79.3852 30.2353C79.4634 29.8835 79.5025 29.6393 79.5025 29.5025C79.5025 29.3689 79.4683 29.2761 79.3999 29.224C79.3315 29.1686 79.2077 29.1328 79.0286 29.1165L79.1018 28.794L80.4259 28.7403H80.9584L80.6799 29.7956L80.7386 29.8151C80.9601 29.5318 81.1653 29.3119 81.3542 29.1556C81.5431 28.996 81.7304 28.8836 81.916 28.8185C82.1017 28.7501 82.315 28.7159 82.5561 28.7159C82.7841 28.7159 82.9844 28.7696 83.157 28.8771C83.3296 28.9846 83.4664 29.1556 83.5674 29.3901C83.6684 29.6213 83.7189 29.9161 83.7189 30.2744C83.7189 30.6164 83.6782 30.9617 83.5967 31.3102C83.5186 31.6587 83.4013 31.9844 83.245 32.2873C83.0919 32.587 82.8964 32.8443 82.6587 33.0593C82.4209 33.2743 82.1505 33.4387 81.8476 33.5527C81.548 33.6635 81.2206 33.7189 80.8656 33.7189C80.5757 33.7189 80.2956 33.6684 80.0252 33.5674L79.8054 34.5983C79.7956 34.6504 79.7858 34.6993 79.7761 34.7449C79.7696 34.7937 79.7647 34.8377 79.7614 34.8768C79.7582 34.9191 79.7565 34.9582 79.7565 34.994C79.7565 35.1341 79.7924 35.2351 79.864 35.2969C79.9389 35.3588 80.066 35.3995 80.2451 35.4191L80.1914 35.7416H78.1589L79.3852 30.2353ZM80.3624 31.833C80.3102 32.074 80.2842 32.3101 80.2842 32.5414C80.2842 32.7792 80.3233 32.9502 80.4014 33.0544C80.4829 33.1586 80.618 33.2107 80.807 33.2107C80.9275 33.2107 81.0382 33.1912 81.1392 33.1521C81.2434 33.113 81.3444 33.0495 81.4421 32.9616C81.5431 32.8704 81.6441 32.7384 81.745 32.5658C81.8721 32.3508 81.9828 32.1066 82.0773 31.833C82.175 31.5594 82.2515 31.2727 82.3069 30.9731C82.3623 30.6701 82.3899 30.3933 82.3899 30.1425C82.3899 29.9015 82.3541 29.7239 82.2825 29.6099C82.2141 29.4927 82.1066 29.4341 81.96 29.4341C81.745 29.4341 81.5252 29.5399 81.3004 29.7516C81.0789 29.9601 80.9014 30.2027 80.7679 30.4796C80.6343 30.7565 80.5122 31.1473 80.4014 31.6522L80.3624 31.833Z" fill="#5F2E6C"/>
<path d="M90.2633 29.0676L90.703 28.7159L91.2502 28.794L90.4978 32.1994C90.4587 32.372 90.4294 32.5104 90.4099 32.6147C90.3936 32.7189 90.3855 32.8068 90.3855 32.8785C90.3855 33.0251 90.4213 33.1309 90.4929 33.1961C90.5646 33.2612 90.6916 33.3019 90.874 33.3182L90.8203 33.6407H88.9442L89.208 32.6391L89.1445 32.6196C88.923 32.9062 88.7162 33.1293 88.524 33.2889C88.3351 33.4453 88.1478 33.556 87.9621 33.6211C87.7797 33.6863 87.568 33.7189 87.327 33.7189C87.099 33.7189 86.8987 33.6651 86.726 33.5576C86.5534 33.4501 86.4166 33.2808 86.3156 33.0495C86.2147 32.815 86.1642 32.5186 86.1642 32.1603C86.1642 31.8183 86.2033 31.473 86.2814 31.1245C86.3629 30.776 86.4817 30.4519 86.6381 30.1523C86.7944 29.8493 86.9915 29.5904 87.2293 29.3754C87.467 29.1605 87.7357 28.9976 88.0354 28.8869C88.3383 28.7729 88.6673 28.7159 89.0223 28.7159C89.5076 28.7159 89.9213 28.8331 90.2633 29.0676ZM89.5256 30.6017C89.5484 30.4975 89.5663 30.3819 89.5793 30.2549C89.5956 30.1246 89.6037 29.9992 89.6037 29.8787C89.6037 29.6637 89.563 29.5008 89.4816 29.3901C89.4002 29.2793 89.2666 29.224 89.081 29.224C88.778 29.224 88.5093 29.3771 88.2748 29.6832C88.0403 29.9861 87.8514 30.3949 87.7081 30.9096C87.5647 31.4242 87.4931 31.8851 87.4931 32.2922C87.4931 32.53 87.5273 32.7075 87.5957 32.8248C87.6673 32.942 87.7765 33.0006 87.923 33.0006C88.138 33.0006 88.3562 32.8964 88.5777 32.688C88.8025 32.4762 88.9832 32.2287 89.12 31.9453C89.2568 31.662 89.379 31.2744 89.4865 30.7825L89.5256 30.6017Z" fill="#5F2E6C"/>
<path d="M96.9934 32.346L97.3891 32.771C97.0471 33.113 96.7051 33.3573 96.3631 33.5039C96.0211 33.6472 95.6449 33.7189 95.2345 33.7189C94.899 33.7189 94.6124 33.6472 94.3746 33.5039C94.1369 33.3606 93.9577 33.157 93.8372 32.8932C93.72 32.6261 93.6613 32.3134 93.6613 31.9551C93.6613 31.6717 93.6955 31.39 93.7639 31.1099C93.8128 30.9047 93.8763 30.7027 93.9545 30.504C94.0587 30.2402 94.1808 30.0106 94.3209 29.8151C94.487 29.5871 94.6857 29.3901 94.917 29.224C95.1515 29.0579 95.4137 28.9325 95.7036 28.8478C95.9967 28.7598 96.311 28.7159 96.6465 28.7159C96.8647 28.7159 97.1009 28.7338 97.3549 28.7696C97.609 28.8022 97.8337 28.8494 98.0292 28.9113L97.7556 30.1034H96.8761C96.8827 30.035 96.8859 29.965 96.8859 29.8933C96.8859 29.6588 96.8501 29.4894 96.7784 29.3852C96.7068 29.2777 96.6009 29.224 96.4609 29.224C96.2198 29.224 95.9902 29.3624 95.772 29.6393C95.5537 29.9161 95.3713 30.3005 95.2248 30.7923C95.0782 31.2841 95.0049 31.7157 95.0049 32.087C95.0049 32.6994 95.228 33.0055 95.6742 33.0055C95.899 33.0055 96.1107 32.955 96.3094 32.8541C96.5113 32.7531 96.7393 32.5837 96.9934 32.346Z" fill="#5F2E6C"/>
<path d="M101.72 33.7189C101.362 33.7189 101.046 33.6553 100.773 33.5283C100.502 33.398 100.289 33.2026 100.132 32.942C99.9794 32.6782 99.9028 32.3574 99.9028 31.9795C99.9028 31.8362 99.9126 31.6766 99.9322 31.5007C99.9582 31.2792 100.004 31.0529 100.069 30.8216C100.144 30.5545 100.238 30.3167 100.352 30.1083C100.476 29.8738 100.619 29.6718 100.782 29.5025C100.945 29.3298 101.121 29.1881 101.31 29.0774C101.502 28.9634 101.711 28.8771 101.935 28.8185C102.202 28.7501 102.483 28.7159 102.776 28.7159C103.18 28.7159 103.518 28.7908 103.792 28.9406C104.065 29.0872 104.267 29.2924 104.398 29.5562C104.531 29.82 104.598 30.1262 104.598 30.4747C104.598 30.9047 104.526 31.3362 104.383 31.7694C104.24 32.2026 104.041 32.5658 103.787 32.859C103.536 33.1521 103.238 33.3687 102.893 33.5088C102.548 33.6488 102.157 33.7189 101.72 33.7189ZM101.217 32.2971C101.217 32.6033 101.266 32.8329 101.364 32.986C101.465 33.1358 101.623 33.2107 101.838 33.2107C101.958 33.2107 102.072 33.1863 102.18 33.1375C102.29 33.0853 102.398 32.999 102.502 32.8785C102.61 32.7547 102.706 32.6 102.79 32.4144C102.875 32.2254 102.955 31.9942 103.03 31.7206C103.108 31.4437 103.168 31.1734 103.21 30.9096C103.253 30.6457 103.274 30.3998 103.274 30.1718C103.274 29.8461 103.224 29.6067 103.123 29.4536C103.025 29.3005 102.872 29.224 102.663 29.224C102.39 29.224 102.152 29.3575 101.95 29.6246C101.751 29.8884 101.579 30.2988 101.432 30.8558C101.289 31.4095 101.217 31.89 101.217 32.2971Z" fill="#5F2E6C"/>
<path d="M112.017 29.7272C112.294 29.3754 112.571 29.1197 112.848 28.9601C113.124 28.7973 113.436 28.7159 113.781 28.7159C114.116 28.7159 114.377 28.8103 114.562 28.9992C114.751 29.1849 114.846 29.4422 114.846 29.7712C114.846 29.9829 114.813 30.2353 114.748 30.5285L114.348 32.3362C114.315 32.486 114.292 32.6016 114.279 32.6831C114.269 32.7645 114.264 32.8345 114.264 32.8932C114.264 33.0397 114.3 33.1423 114.372 33.201C114.447 33.2596 114.574 33.2987 114.753 33.3182L114.694 33.6407H112.667L113.341 30.7043C113.377 30.5513 113.403 30.4259 113.419 30.3281C113.439 30.2304 113.452 30.1457 113.458 30.0741C113.468 30.0024 113.473 29.9373 113.473 29.8787C113.473 29.7321 113.442 29.6213 113.38 29.5464C113.322 29.4683 113.232 29.4292 113.111 29.4292C113.014 29.4292 112.901 29.4715 112.774 29.5562C112.647 29.6376 112.509 29.7598 112.359 29.9226C112.212 30.0855 112.094 30.2597 112.002 30.4454C111.911 30.6278 111.838 30.8574 111.783 31.1343L111.245 33.6407H109.838L110.542 30.5773C110.574 30.447 110.597 30.3428 110.61 30.2646C110.623 30.1865 110.631 30.1197 110.634 30.0643C110.641 30.0089 110.644 29.9585 110.644 29.9129C110.644 29.7435 110.615 29.6213 110.556 29.5464C110.498 29.4683 110.405 29.4292 110.278 29.4292C110.125 29.4292 109.941 29.5285 109.726 29.7272C109.514 29.9259 109.348 30.1295 109.227 30.3379C109.11 30.5431 109.019 30.8086 108.954 31.1343L108.416 33.6407H107.014L107.781 30.1913C107.797 30.1132 107.819 30.0024 107.845 29.8591C107.874 29.7125 107.889 29.5904 107.889 29.4927C107.889 29.3559 107.849 29.2631 107.771 29.2142C107.696 29.1621 107.578 29.1295 107.415 29.1165L107.488 28.794L108.832 28.7403H109.345L109.066 29.7956L109.125 29.8151C109.353 29.535 109.561 29.3168 109.75 29.1605C109.942 29.0009 110.133 28.8869 110.322 28.8185C110.511 28.7501 110.721 28.7159 110.952 28.7159C111.278 28.7159 111.533 28.8054 111.719 28.9846C111.908 29.1637 112.007 29.4113 112.017 29.7272Z" fill="#5F2E6C"/>
<path d="M117.804 29.1165L117.863 28.794H119.89L119.353 30.9193C119.698 30.8509 120.04 30.8167 120.379 30.8167C121.369 30.8167 121.864 31.2336 121.864 32.0675C121.864 32.5723 121.667 32.9746 121.273 33.2743C120.879 33.5707 120.351 33.7189 119.69 33.7189C118.439 33.7189 117.814 33.2107 117.814 32.1945C117.814 31.9404 117.868 31.5822 117.975 31.1196L118.21 30.0985C118.265 29.8575 118.293 29.6718 118.293 29.5415C118.293 29.3819 118.249 29.2745 118.161 29.2191C118.073 29.1637 117.954 29.1295 117.804 29.1165ZM119.226 31.4616C119.154 31.7874 119.118 32.0626 119.118 32.2873C119.118 32.8476 119.34 33.1277 119.783 33.1277C120.281 33.1277 120.53 32.8264 120.53 32.2238C120.53 31.6766 120.314 31.403 119.881 31.403C119.698 31.403 119.48 31.4226 119.226 31.4616ZM123.418 28.794H124.805L124.038 32.2434C123.967 32.5658 123.931 32.7987 123.931 32.942C123.931 33.0723 123.965 33.1635 124.033 33.2156C124.105 33.2677 124.229 33.3019 124.405 33.3182L124.332 33.6407H122.367L123.418 28.794Z" fill="#5F2E6C"/>
</svg>
